<svg width="32" height="32" viewBox="0 0 32 32" fill="none" xmlns="http://www.w3.org/2000/svg">
<circle cx="16" cy="16" r="16" fill="#0D28A6"/>
<path d="M9.33329 9.33301H22.6666C23.5833 9.33301 24.3333 10.083 24.3333 10.9997V20.9997C24.3333 21.9163 23.5833 22.6663 22.6666 22.6663H9.33329C8.41663 22.6663 7.66663 21.9163 7.66663 20.9997V10.9997C7.66663 10.083 8.41663 9.33301 9.33329 9.33301Z" stroke="white" stroke-linecap="round" stroke-linejoin="round"/>
<path d="M24.3333 11L16 16.8333L7.66663 11" stroke="white" stroke-linecap="round" stroke-linejoin="round"/>
</svg>
